goodreads – Mauricio Rincón Bonilla
…
The gender dataset looks like this

Code

gender_prediction

# A tibble: 117 × 6
   name   proportion_male proportion_female gender year_min year_max
   <chr>            <dbl>             <dbl> <chr>     <dbl>    <dbl>
 1 Adam            0.996             0.0041 male       1932     2012
 2 Alan            0.997             0.0032 male       1932     2012
 3 Alex            0.966             0.0343 male       1932     2012
 4 Allie           0.0396            0.960  female     1932     2012
 5 Amor            0.177             0.823  female     1932     2012
 6 Anand           1                 0      male       1932     2012
 7 Andrew          0.996             0.004  male       1932     2012
 8 Andy            0.988             0.0119 male       1932     2012
 9 Anne            0.0025            0.998  female     1932     2012
10 Annie           0.0053            0.995  female     1932     2012
# ℹ 107 more rows
…
